{
  "_fv": 5,
  "_type": "tool",
  "definition": {
    "renderType": 0,
    "texture": "ston_dagger",
    "customModelName": "Normal",
    "name": "Stone dagger",
    "creativeTab": {
      "value": "CUSTOM:Melle"
    },
    "toolType": "Sword",
    "harvestLevel": 1,
    "efficiency": 4.0,
    "attackSpeed": 3.0,
    "enchantability": 2,
    "damageVsEntity": 1.0,
    "usageCount": 132,
    "blocksAffected": [],
    "hasGlow": false,
    "repairItems": [
      {
        "value": "Blocks.COBBLESTONE"
      }
    ]
  }
}