{
  "group": "the_ultimate_combat_uptate",
  "type": "minecraft:crafting_shapeless",
  "ingredients": [
    {
      "item": "minecraft:emerald"
    },
    {
      "item": "minecraft:stick"
    }
  ],
  "result": {
    "item": "the_ultimate_combat_uptate:emeralddagger",
    "count": 1
  }
}